<svg xmlns="http://www.w3.org/2000/svg" width="100%" height="100%" viewBox="0 0 550 291" version="1.1" xmlns:xlink="http://www.w3.org/1999/xlink">
<g id="surface2" transform="matrix(1.578784107678336,0,0,1.578784107678336,-194.4869699504789,-30.193547198546952)" data-tpl_matrix="1,0,0,1,0,0">
<path style="stroke:none;fill-rule:evenodd;fill:rgb(65.098039%,63.921569%,49.803922%);fill-opacity:1" d="M 329 87.101562 L 294.398438 87.101562 L 294.398438 81.101562 L 329 81.101562 L 329 87.101562 "/>
<path style="stroke:none;fill-rule:evenodd;fill:rgb(65.098039%,63.921569%,49.803922%);fill-opacity:1" d="M 329 127.101562 L 293.398438 127.101562 L 293.398438 121.101562 L 329 121.101562 L 329 127.101562 "/>
<path style="stroke:none;fill-rule:evenodd;fill:rgb(37.647059%,38.431373%,31.764706%);fill-opacity:1" d="M 347.949219 107.101562 L 303.5 107.101562 L 303.5 101.101562 L 347.949219 101.101562 L 347.949219 107.101562 "/>
<path style="stroke:none;fill-rule:evenodd;fill:rgb(65.098039%,63.921569%,49.803922%);fill-opacity:1" d="M 189.898438 87.101562 L 154.300781 87.101562 L 154.300781 81.101562 L 189.898438 81.101562 L 189.898438 87.101562 "/>
<path style="stroke:none;fill-rule:evenodd;fill:rgb(65.098039%,63.921569%,49.803922%);fill-opacity:1" d="M 189.898438 127.101562 L 154.300781 127.101562 L 154.300781 121.101562 L 189.898438 121.101562 L 189.898438 127.101562 "/>
<path style="stroke:none;fill-rule:evenodd;fill:rgb(37.647059%,38.431373%,31.764706%);fill-opacity:1" d="M 178.699219 107.101562 L 135.398438 107.101562 L 135.398438 101.101562 L 178.699219 101.101562 L 178.699219 107.101562 "/>
<path style="stroke:none;fill-rule:evenodd;fill:rgb(37.647059%,38.431373%,31.764706%);fill-opacity:1" d="M 207.601562 160.101562 L 175.25 104.101562 L 207.601562 48.101562 L 212.800781 51.101562 L 182.199219 104.101562 L 212.800781 157.101562 L 207.601562 160.101562 "/>
<path style="stroke:none;fill-rule:evenodd;fill:rgb(37.647059%,38.431373%,31.764706%);fill-opacity:1" d="M 275.699219 160.101562 L 270.5 157.101562 L 301.101562 104.101562 L 270.5 51.101562 L 275.699219 48.101562 L 308.050781 104.101562 L 275.699219 160.101562 "/>
<path style="stroke:none;fill-rule:evenodd;fill:rgb(140,31,78);fill-opacity:1" d="M43.556641-20.135742L43.556641-20.135742L43.556641-20.135742Q43.556641-17.247070 42.806152-14.570801L42.806152-14.570801L42.806152-14.570801Q42.055664-11.894531 40.696289-9.558105L40.696289-9.558105L40.696289-9.558105Q39.336914-7.221680 37.411133-5.295898L37.411133-5.295898L37.411133-5.295898Q35.485352-3.370117 33.163086-1.996582L33.163086-1.996582L33.163086-1.996582Q30.840820-0.623047 28.150391 0.127441L28.150391 0.127441L28.150391 0.127441Q25.459961 0.877930 22.571289 0.877930L22.571289 0.877930L22.571289 0.877930Q19.682617 0.877930 17.006348 0.127441L17.006348 0.127441L17.006348 0.127441Q14.330078-0.623047 11.993652-1.996582L11.993652-1.996582L11.993652-1.996582Q9.657227-3.370117 7.731445-5.295898L7.731445-5.295898L7.731445-5.295898Q5.805664-7.221680 4.432129-9.558105L4.432129-9.558105L4.432129-9.558105Q3.058594-11.894531 2.308105-14.570801L2.308105-14.570801L2.308105-14.570801Q1.557617-17.247070 1.557617-20.135742L1.557617-20.135742L1.557617-20.135742Q1.557617-23.024414 2.308105-25.714844L2.308105-25.714844L2.308105-25.714844Q3.058594-28.405273 4.432129-30.727539L4.432129-30.727539L4.432129-30.727539Q5.805664-33.049805 7.731445-34.975586L7.731445-34.975586L7.731445-34.975586Q9.657227-36.901367 11.993652-38.260742L11.993652-38.260742L11.993652-38.260742Q14.330078-39.620117 17.006348-40.370605L17.006348-40.370605L17.006348-40.370605Q19.682617-41.121094 22.571289-41.121094L22.571289-41.121094L22.571289-41.121094Q25.459961-41.121094 28.150391-40.370605L28.150391-40.370605L28.150391-40.370605Q30.840820-39.620117 33.163086-38.260742L33.163086-38.260742L33.163086-38.260742Q35.485352-36.901367 37.411133-34.975586L37.411133-34.975586L37.411133-34.975586Q39.336914-33.049805 40.696289-30.727539L40.696289-30.727539L40.696289-30.727539Q42.055664-28.405273 42.806152-25.714844L42.806152-25.714844L42.806152-25.714844Q43.556641-23.024414 43.556641-20.135742ZM35.485352-20.135742L35.485352-20.135742L35.485352-20.135742Q35.485352-22.797852 34.465820-25.162598L34.465820-25.162598L34.465820-25.162598Q33.446289-27.527344 31.704590-29.269043L31.704590-29.269043L31.704590-29.269043Q29.962891-31.010742 27.598145-32.030273L27.598145-32.030273L27.598145-32.030273Q25.233398-33.049805 22.571289-33.049805L22.571289-33.049805L22.571289-33.049805Q19.880859-33.049805 17.530273-32.030273L17.530273-32.030273L17.530273-32.030273Q15.179688-31.010742 13.423828-29.269043L13.423828-29.269043L13.423828-29.269043Q11.667969-27.527344 10.648438-25.162598L10.648438-25.162598L10.648438-25.162598Q9.628906-22.797852 9.628906-20.135742L9.628906-20.135742L9.628906-20.135742Q9.628906-17.473633 10.648438-15.137207L10.648438-15.137207L10.648438-15.137207Q11.667969-12.800781 13.423828-11.044922L13.423828-11.044922L13.423828-11.044922Q15.179688-9.289063 17.530273-8.269531L17.530273-8.269531L17.530273-8.269531Q19.880859-7.250000 22.571289-7.250000L22.571289-7.250000L22.571289-7.250000Q25.233398-7.250000 27.598145-8.269531L27.598145-8.269531L27.598145-8.269531Q29.962891-9.289063 31.704590-11.044922L31.704590-11.044922L31.704590-11.044922Q33.446289-12.800781 34.465820-15.137207L34.465820-15.137207L34.465820-15.137207Q35.485352-17.473633 35.485352-20.135742Z" transform="matrix(1,0,0,1,219,124.5)" data-str-tmatrix="1,0,0,1,225.15,124.1" data-str-color="rgb(140,31,78)" data-str-text="O" data-str-default_text="Enter Text" data-str-fontsize="58" data-str-font_family="Righteous" data-str-hastextedit="true" data-str-fonticons="true" data-str-bold="false" data-str-italic="false" data-str-data="" data-str-letter_spacing="0" data-str-use_path="false" data-str-txt_dy="0" data-lyt_name="init_1"/>
</g>
<g id="surface4">
<text style="fill:rgb(140,31,78)" font-family="Righteous" font-size="50" font-weigth="900" transform="matrix(1,0,0,1,279.5,70.5)" xml:space="preserve"><![CDATA[odagrun]]></text>
<text style="fill:rgb(166,162,126)" font-family="Dancing Script" font-size="20" transform="matrix(1.3235352428921776,0,0,1.3235352428921776,266.85253299754754,216.9118171860296)" xml:space="preserve"><![CDATA[okd Gitlab runner]]></text>
</g>
</svg>
